(--) Log file renamed from "/var/log/Xorg.pid-3130.log" to "/var/log/Xorg.0.log"

X.Org X Server 1.20.8
X Protocol Version 11, Revision 0
Build Operating System: Linux 5.6.10-arch1-1 x86_64 Gentoo
Current Operating System: Linux gentoo 5.6.12 #1 SMP PREEMPT Wed May 13 06:58:09 -00 2020 x86_64
Kernel command line: BOOT_IMAGE=/boot/vmlinuz-5.6.12 root=UUID=69a12107-9e73-41ca-be55-6488362e7ace ro
Build Date: 07 May 2020  08:04:56PM
 
Current version of pixman: 0.40.0
	Before reporting problems, check http://wiki.x.org
	to make sure that you have the latest version.
Markers: (--) probed, (**) from config file, (==) default setting,
	(++) from command line, (!!) notice, (II) informational,
	(WW) warning, (EE) error, (NI) not implemented, (??) unknown.
(==) Log file: "/var/log/Xorg.0.log", Time: Sat May 16 00:39:45 2020
(==) Using system config directory "/usr/share/X11/xorg.conf.d"
(==) No Layout section.  Using the first Screen section.
(==) No screen section available. Using defaults.
(**) |-->Screen "Default Screen Section" (0)
(**) |   |-->Monitor "<default monitor>"
(==) No monitor specified for screen "Default Screen Section".
	Using a default monitor configuration.
(==) Automatically adding devices
(==) Automatically enabling devices
(==) Automatically adding GPU devices
(==) Max clients allowed: 256, resource mask: 0x1fffff
(WW) The directory "/usr/share/fonts/TTF/" does not exist.
	Entry deleted from font path.
(WW) The directory "/usr/share/fonts/OTF/" does not exist.
	Entry deleted from font path.
(WW) The directory "/usr/share/fonts/Type1/" does not exist.
	Entry deleted from font path.
(WW) `fonts.dir' not found (or not valid) in "/usr/share/fonts/100dpi/".
	Entry deleted from font path.
	(Run 'mkfontdir' on "/usr/share/fonts/100dpi/").
(WW) `fonts.dir' not found (or not valid) in "/usr/share/fonts/75dpi/".
	Entry deleted from font path.
	(Run 'mkfontdir' on "/usr/share/fonts/75dpi/").
(==) FontPath set to:
	/usr/share/fonts/misc/
(==) ModulePath set to "/usr/lib64/xorg/modules"
(II) The server relies on udev to provide the list of input devices.
	If no devices become available, reconfigure udev or disable AutoAddDevices.
(II) Loader magic: 0x55db3ee98ce0
(II) Module ABI versions:
	X.Org ANSI C Emulation: 0.4
	X.Org Video Driver: 24.1
	X.Org XInput driver : 24.1
	X.Org Server Extension : 10.0
(++) using VT number 7

(II) systemd-logind: took control of session /org/freedesktop/login1/session/c1
(II) xfree86: Adding drm device (/dev/dri/card0)
(II) systemd-logind: got fd for /dev/dri/card0 226:0 fd 11 paused 0
(--) PCI:*(0@0:2:0) 8086:5917:1043:1d30 rev 7, Mem @ 0xee000000/16777216, 0xd0000000/268435456, I/O @ 0x0000f000/64, BIOS @ 0x????????/131072
(II) LoadModule: "glx"
(II) Loading /usr/lib64/xorg/modules/extensions/libglx.so
(II) Module glx: vendor="X.Org Foundation"
	compiled for 1.20.8, module version = 1.0.0
	ABI class: X.Org Server Extension, version 10.0
(==) Matched intel as autoconfigured driver 0
(==) Matched modesetting as autoconfigured driver 1
(==) Matched fbdev as autoconfigured driver 2
(==) Matched vesa as autoconfigured driver 3
(==) Assigned the driver to the xf86ConfigLayout
(II) LoadModule: "intel"
(II) Loading /usr/lib64/xorg/modules/drivers/intel_drv.so
(II) Module intel: vendor="X.Org Foundation"
	compiled for 1.20.8, module version = 2.99.917
	Module class: X.Org Video Driver
	ABI class: X.Org Video Driver, version 24.1
(II) LoadModule: "modesetting"
(II) Loading /usr/lib64/xorg/modules/drivers/modesetting_drv.so
(II) Module modesetting: vendor="X.Org Foundation"
	compiled for 1.20.8, module version = 1.20.8
	Module class: X.Org Video Driver
	ABI class: X.Org Video Driver, version 24.1
(II) LoadModule: "fbdev"
(II) Loading /usr/lib64/xorg/modules/drivers/fbdev_drv.so
(II) Module fbdev: vendor="X.Org Foundation"
	compiled for 1.20.8, module version = 0.5.0
	Module class: X.Org Video Driver
	ABI class: X.Org Video Driver, version 24.1
(II) LoadModule: "vesa"
(II) Loading /usr/lib64/xorg/modules/drivers/vesa_drv.so
(II) Module vesa: vendor="X.Org Foundation"
	compiled for 1.20.8, module version = 2.4.0
	Module class: X.Org Video Driver
	ABI class: X.Org Video Driver, version 24.1
(II) intel: Driver for Intel(R) Integrated Graphics Chipsets:
	i810, i810-dc100, i810e, i815, i830M, 845G, 854, 852GM/855GM, 865G,
	915G, E7221 (i915), 915GM, 945G, 945GM, 945GME, Pineview GM,
	Pineview G, 965G, G35, 965Q, 946GZ, 965GM, 965GME/GLE, G33, Q35, Q33,
	GM45, 4 Series, G45/G43, Q45/Q43, G41, B43
(II) intel: Driver for Intel(R) HD Graphics
(II) intel: Driver for Intel(R) Iris(TM) Graphics
(II) intel: Driver for Intel(R) Iris(TM) Pro Graphics
(II) modesetting: Driver for Modesetting Kernel Drivers: kms
(II) FBDEV: driver for framebuffer: fbdev
(II) VESA: driver for VESA chipsets: vesa
(II) intel(0): Using Kernel Mode Setting driver: i915, version 1.6.0 20200114
(WW) Falling back to old probe method for modesetting
(WW) Falling back to old probe method for fbdev
(II) Loading sub module "fbdevhw"
(II) LoadModule: "fbdevhw"
(II) Loading /usr/lib64/xorg/modules/libfbdevhw.so
(II) Module fbdevhw: vendor="X.Org Foundation"
	compiled for 1.20.8, module version = 0.0.2
	ABI class: X.Org Video Driver, version 24.1
(--) intel(0): gen9 engineering sample
(--) intel(0): CPU: x86-64, sse2, sse3, ssse3, sse4.1, sse4.2, avx, avx2; using a maximum of 4 threads
(II) intel(0): Creating default Display subsection in Screen section
	"Default Screen Section" for depth/fbbpp 24/32
(==) intel(0): Depth 24, (--) framebuffer bpp 32
(==) intel(0): RGB weight 888
(==) intel(0): Default visual is TrueColor
(II) intel(0): Output eDP1 has no monitor section
(**) intel(0): Found backlight control interface intel_backlight (type 'raw') for output eDP1
(II) intel(0): Enabled output eDP1
(II) intel(0): Output HDMI1 has no monitor section
(II) intel(0): Enabled output HDMI1
(--) intel(0): Using a maximum size of 256x256 for hardware cursors
(II) intel(0): Output VIRTUAL1 has no monitor section
(II) intel(0): Enabled output VIRTUAL1
(--) intel(0): Output eDP1 using initial mode 1920x1080 on pipe 0
(==) intel(0): TearFree enabled
(==) intel(0): Using gamma correction (1.0, 1.0, 1.0)
(==) intel(0): DPI set to (96, 96)
(II) Loading sub module "dri3"
(II) LoadModule: "dri3"
(II) Module "dri3" already built-in
(II) Loading sub module "dri2"
(II) LoadModule: "dri2"
(II) Module "dri2" already built-in
(II) Loading sub module "present"
(II) LoadModule: "present"
(II) Module "present" already built-in
(II) UnloadModule: "modesetting"
(II) Unloading modesetting
(II) UnloadModule: "fbdev"
(II) Unloading fbdev
(II) UnloadSubModule: "fbdevhw"
(II) Unloading fbdevhw
(II) UnloadModule: "vesa"
(II) Unloading vesa
(II) intel(0): SNA initialized with Kabylake (gen9) backend
(==) intel(0): Backing store enabled
(==) intel(0): Silken mouse enabled
(II) intel(0): HW Cursor enabled
(==) intel(0): DPMS enabled
(==) intel(0): Display hotplug detection enabled
(II) intel(0): [DRI2] Setup complete
(II) intel(0): [DRI2]   DRI driver: i965
(II) intel(0): [DRI2]   VDPAU driver: va_gl
(II) intel(0): direct rendering: DRI2 DRI3 enabled
(II) intel(0): hardware support for Present enabled
(II) Initializing extension Generic Event Extension
(II) Initializing extension SHAPE
(II) Initializing extension MIT-SHM
(II) Initializing extension XInputExtension
(II) Initializing extension XTEST
(II) Initializing extension BIG-REQUESTS
(II) Initializing extension SYNC
(II) Initializing extension XKEYBOARD
(II) Initializing extension XC-MISC
(II) Initializing extension XFIXES
(II) Initializing extension RENDER
(II) Initializing extension RANDR
(II) Initializing extension COMPOSITE
(II) Initializing extension DAMAGE
(II) Initializing extension MIT-SCREEN-SAVER
(II) Initializing extension DOUBLE-BUFFER
(II) Initializing extension RECORD
(II) Initializing extension DPMS
(II) Initializing extension Present
(II) Initializing extension DRI3
(II) Initializing extension X-Resource
(II) Initializing extension XVideo
(II) Initializing extension XVideo-MotionCompensation
(II) Initializing extension GLX
(II) AIGLX: Loaded and initialized i965
(II) GLX: Initialized DRI2 GL provider for screen 0
(II) Initializing extension XFree86-VidModeExtension
(II) Initializing extension XFree86-DGA
(II) Initializing extension XFree86-DRI
(II) Initializing extension DRI2
(II) intel(0): switch to mode 1920x1080@60.0 on eDP1 using pipe 0, position (0, 0), rotation normal, reflection none
(II) intel(0): Setting screen physical size to 508 x 285
(II) config/udev: Adding input device Power Button (/dev/input/event3)
(**) Power Button: Applying InputClass "libinput keyboard catchall"
(II) LoadModule: "libinput"
(II) Loading /usr/lib64/xorg/modules/input/libinput_drv.so
(II) Module libinput: vendor="X.Org Foundation"
	compiled for 1.20.8, module version = 0.29.0
	Module class: X.Org XInput Driver
	ABI class: X.Org XInput driver, version 24.1
(II) Using input driver 'libinput' for 'Power Button'
(II) systemd-logind: got fd for /dev/input/event3 13:67 fd 25 paused 0
(**) Power Button: always reports core events
(**) Option "Device" "/dev/input/event3"
(**) Option "_source" "server/udev"
(II) event3  - Power Button: is tagged by udev as: Keyboard
(II) event3  - Power Button: device is a keyboard
(II) event3  - Power Button: device removed
(**) Option "config_info" "udev:/sys/devices/LNXSYSTM:00/LNXPWRBN:00/input/input3/event3"
(II) XINPUT: Adding extended input device "Power Button" (type: KEYBOARD, id 6)
(II) event3  - Power Button: is tagged by udev as: Keyboard
(II) event3  - Power Button: device is a keyboard
(II) config/udev: Adding input device Asus Wireless Radio Control (/dev/input/event5)
(**) Asus Wireless Radio Control: Applying InputClass "libinput keyboard catchall"
(II) Using input driver 'libinput' for 'Asus Wireless Radio Control'
(II) systemd-logind: got fd for /dev/input/event5 13:69 fd 28 paused 0
(**) Asus Wireless Radio Control: always reports core events
(**) Option "Device" "/dev/input/event5"
(**) Option "_source" "server/udev"
(II) event5  - Asus Wireless Radio Control: is tagged by udev as: Keyboard
(II) event5  - Asus Wireless Radio Control: device is a keyboard
(II) event5  - Asus Wireless Radio Control: device removed
(**) Option "config_info" "udev:/sys/devices/LNXSYSTM:00/LNXSYBUS:00/ATK4002:00/input/input5/event5"
(II) XINPUT: Adding extended input device "Asus Wireless Radio Control" (type: KEYBOARD, id 7)
(II) event5  - Asus Wireless Radio Control: is tagged by udev as: Keyboard
(II) event5  - Asus Wireless Radio Control: device is a keyboard
(II) config/udev: Adding input device Video Bus (/dev/input/event7)
(**) Video Bus: Applying InputClass "libinput keyboard catchall"
(II) Using input driver 'libinput' for 'Video Bus'
(II) systemd-logind: got fd for /dev/input/event7 13:71 fd 29 paused 0
(**) Video Bus: always reports core events
(**) Option "Device" "/dev/input/event7"
(**) Option "_source" "server/udev"
(II) event7  - Video Bus: is tagged by udev as: Keyboard
(II) event7  - Video Bus: device is a keyboard
(II) event7  - Video Bus: device removed
(**) Option "config_info" "udev:/sys/devices/LNXSYSTM:00/LNXSYBUS:00/PNP0A08:00/LNXVIDEO:00/input/input7/event7"
(II) XINPUT: Adding extended input device "Video Bus" (type: KEYBOARD, id 8)
(II) event7  - Video Bus: is tagged by udev as: Keyboard
(II) event7  - Video Bus: device is a keyboard
(II) config/udev: Adding input device Lid Switch (/dev/input/event0)
(II) No input driver specified, ignoring this device.
(II) This device may have been added with another device file.
(II) config/udev: Adding input device Power Button (/dev/input/event2)
(**) Power Button: Applying InputClass "libinput keyboard catchall"
(II) Using input driver 'libinput' for 'Power Button'
(II) systemd-logind: got fd for /dev/input/event2 13:66 fd 30 paused 0
(**) Power Button: always reports core events
(**) Option "Device" "/dev/input/event2"
(**) Option "_source" "server/udev"
(II) event2  - Power Button: is tagged by udev as: Keyboard
(II) event2  - Power Button: device is a keyboard
(II) event2  - Power Button: device removed
(**) Option "config_info" "udev:/sys/devices/LNXSYSTM:00/LNXSYBUS:00/PNP0C0C:00/input/input2/event2"
(II) XINPUT: Adding extended input device "Power Button" (type: KEYBOARD, id 9)
(II) event2  - Power Button: is tagged by udev as: Keyboard
(II) event2  - Power Button: device is a keyboard
(II) config/udev: Adding input device Sleep Button (/dev/input/event1)
(**) Sleep Button: Applying InputClass "libinput keyboard catchall"
(II) Using input driver 'libinput' for 'Sleep Button'
(II) systemd-logind: got fd for /dev/input/event1 13:65 fd 31 paused 0
(**) Sleep Button: always reports core events
(**) Option "Device" "/dev/input/event1"
(**) Option "_source" "server/udev"
(II) event1  - Sleep Button: is tagged by udev as: Keyboard
(II) event1  - Sleep Button: device is a keyboard
(II) event1  - Sleep Button: device removed
(**) Option "config_info" "udev:/sys/devices/LNXSYSTM:00/LNXSYBUS:00/PNP0C0E:00/input/input1/event1"
(II) XINPUT: Adding extended input device "Sleep Button" (type: KEYBOARD, id 10)
(II) event1  - Sleep Button: is tagged by udev as: Keyboard
(II) event1  - Sleep Button: device is a keyboard
(II) config/udev: Adding input device USB2.0 VGA UVC WebCam: USB2.0 V (/dev/input/event6)
(**) USB2.0 VGA UVC WebCam: USB2.0 V: Applying InputClass "libinput keyboard catchall"
(II) Using input driver 'libinput' for 'USB2.0 VGA UVC WebCam: USB2.0 V'
(II) systemd-logind: got fd for /dev/input/event6 13:70 fd 32 paused 0
(**) USB2.0 VGA UVC WebCam: USB2.0 V: always reports core events
(**) Option "Device" "/dev/input/event6"
(**) Option "_source" "server/udev"
(II) event6  - USB2.0 VGA UVC WebCam: USB2.0 V: is tagged by udev as: Keyboard
(II) event6  - USB2.0 VGA UVC WebCam: USB2.0 V: device is a keyboard
(II) event6  - USB2.0 VGA UVC WebCam: USB2.0 V: device removed
(**) Option "config_info" "udev:/sys/devices/pci0000:00/0000:00:14.0/usb1/1-6/1-6:1.0/input/input6/event6"
(II) XINPUT: Adding extended input device "USB2.0 VGA UVC WebCam: USB2.0 V" (type: KEYBOARD, id 11)
(II) event6  - USB2.0 VGA UVC WebCam: USB2.0 V: is tagged by udev as: Keyboard
(II) event6  - USB2.0 VGA UVC WebCam: USB2.0 V: device is a keyboard
(II) config/udev: Adding input device ELAN1300:00 04F3:3057 Mouse (/dev/input/event17)
(**) ELAN1300:00 04F3:3057 Mouse: Applying InputClass "libinput pointer catchall"
(II) Using input driver 'libinput' for 'ELAN1300:00 04F3:3057 Mouse'
(II) systemd-logind: got fd for /dev/input/event17 13:81 fd 33 paused 0
(**) ELAN1300:00 04F3:3057 Mouse: always reports core events
(**) Option "Device" "/dev/input/event17"
(**) Option "_source" "server/udev"
(II) event17 - ELAN1300:00 04F3:3057 Mouse: is tagged by udev as: Mouse
(II) event17 - ELAN1300:00 04F3:3057 Mouse: device is a pointer
(II) event17 - ELAN1300:00 04F3:3057 Mouse: device removed
(**) Option "config_info" "udev:/sys/devices/pci0000:00/0000:00:15.1/i2c_designware.1/i2c-4/i2c-ELAN1300:00/0018:04F3:3057.0001/input/input19/event17"
(II) XINPUT: Adding extended input device "ELAN1300:00 04F3:3057 Mouse" (type: MOUSE, id 12)
(**) Option "AccelerationScheme" "none"
(**) ELAN1300:00 04F3:3057 Mouse: (accel) selected scheme none/0
(**) ELAN1300:00 04F3:3057 Mouse: (accel) acceleration factor: 2.000
(**) ELAN1300:00 04F3:3057 Mouse: (accel) acceleration threshold: 4
(II) event17 - ELAN1300:00 04F3:3057 Mouse: is tagged by udev as: Mouse
(II) event17 - ELAN1300:00 04F3:3057 Mouse: device is a pointer
(II) config/udev: Adding input device ELAN1300:00 04F3:3057 Mouse (/dev/input/mouse0)
(II) No input driver specified, ignoring this device.
(II) This device may have been added with another device file.
(II) config/udev: Adding input device ELAN1300:00 04F3:3057 Touchpad (/dev/input/event18)
(**) ELAN1300:00 04F3:3057 Touchpad: Applying InputClass "libinput touchpad catchall"
(II) Using input driver 'libinput' for 'ELAN1300:00 04F3:3057 Touchpad'
(II) systemd-logind: got fd for /dev/input/event18 13:82 fd 34 paused 0
(**) ELAN1300:00 04F3:3057 Touchpad: always reports core events
(**) Option "Device" "/dev/input/event18"
(**) Option "_source" "server/udev"
(II) event18 - ELAN1300:00 04F3:3057 Touchpad: is tagged by udev as: Touchpad
(II) event18 - ELAN1300:00 04F3:3057 Touchpad: device is a touchpad
(II) event18 - ELAN1300:00 04F3:3057 Touchpad: device removed
(**) Option "config_info" "udev:/sys/devices/pci0000:00/0000:00:15.1/i2c_designware.1/i2c-4/i2c-ELAN1300:00/0018:04F3:3057.0001/input/input20/event18"
(II) XINPUT: Adding extended input device "ELAN1300:00 04F3:3057 Touchpad" (type: TOUCHPAD, id 13)
(**) Option "AccelerationScheme" "none"
(**) ELAN1300:00 04F3:3057 Touchpad: (accel) selected scheme none/0
(**) ELAN1300:00 04F3:3057 Touchpad: (accel) acceleration factor: 2.000
(**) ELAN1300:00 04F3:3057 Touchpad: (accel) acceleration threshold: 4
(II) event18 - ELAN1300:00 04F3:3057 Touchpad: is tagged by udev as: Touchpad
(II) event18 - ELAN1300:00 04F3:3057 Touchpad: device is a touchpad
(II) config/udev: Adding input device ELAN1300:00 04F3:3057 Touchpad (/dev/input/mouse1)
(II) No input driver specified, ignoring this device.
(II) This device may have been added with another device file.
(II) config/udev: Adding input device HDA Intel PCH Mic (/dev/input/event10)
(II) No input driver specified, ignoring this device.
(II) This device may have been added with another device file.
(II) config/udev: Adding input device HDA Intel PCH Headphone (/dev/input/event11)
(II) No input driver specified, ignoring this device.
(II) This device may have been added with another device file.
(II) config/udev: Adding input device HDA Intel PCH HDMI/DP,pcm=3 (/dev/input/event12)
(II) No input driver specified, ignoring this device.
(II) This device may have been added with another device file.
(II) config/udev: Adding input device HDA Intel PCH HDMI/DP,pcm=7 (/dev/input/event13)
(II) No input driver specified, ignoring this device.
(II) This device may have been added with another device file.
(II) config/udev: Adding input device HDA Intel PCH HDMI/DP,pcm=8 (/dev/input/event14)
(II) No input driver specified, ignoring this device.
(II) This device may have been added with another device file.
(II) config/udev: Adding input device HDA Intel PCH HDMI/DP,pcm=9 (/dev/input/event15)
(II) No input driver specified, ignoring this device.
(II) This device may have been added with another device file.
(II) config/udev: Adding input device HDA Intel PCH HDMI/DP,pcm=10 (/dev/input/event16)
(II) No input driver specified, ignoring this device.
(II) This device may have been added with another device file.
(II) config/udev: Adding input device Asus WMI hotkeys (/dev/input/event9)
(**) Asus WMI hotkeys: Applying InputClass "libinput keyboard catchall"
(II) Using input driver 'libinput' for 'Asus WMI hotkeys'
(II) systemd-logind: got fd for /dev/input/event9 13:73 fd 35 paused 0
(**) Asus WMI hotkeys: always reports core events
(**) Option "Device" "/dev/input/event9"
(**) Option "_source" "server/udev"
(II) event9  - Asus WMI hotkeys: is tagged by udev as: Keyboard
(II) event9  - Asus WMI hotkeys: device is a keyboard
(II) event9  - Asus WMI hotkeys: device removed
(**) Option "config_info" "udev:/sys/devices/platform/asus-nb-wmi/input/input9/event9"
(II) XINPUT: Adding extended input device "Asus WMI hotkeys" (type: KEYBOARD, id 14)
(II) event9  - Asus WMI hotkeys: is tagged by udev as: Keyboard
(II) event9  - Asus WMI hotkeys: device is a keyboard
(II) config/udev: Adding input device AT Translated Set 2 keyboard (/dev/input/event4)
(**) AT Translated Set 2 keyboard: Applying InputClass "libinput keyboard catchall"
(II) Using input driver 'libinput' for 'AT Translated Set 2 keyboard'
(II) systemd-logind: got fd for /dev/input/event4 13:68 fd 36 paused 0
(**) AT Translated Set 2 keyboard: always reports core events
(**) Option "Device" "/dev/input/event4"
(**) Option "_source" "server/udev"
(II) event4  - AT Translated Set 2 keyboard: is tagged by udev as: Keyboard
(II) event4  - AT Translated Set 2 keyboard: device is a keyboard
(II) event4  - AT Translated Set 2 keyboard: device removed
(**) Option "config_info" "udev:/sys/devices/platform/i8042/serio0/input/input4/event4"
(II) XINPUT: Adding extended input device "AT Translated Set 2 keyboard" (type: KEYBOARD, id 15)
(II) event4  - AT Translated Set 2 keyboard: is tagged by udev as: Keyboard
(II) event4  - AT Translated Set 2 keyboard: device is a keyboard
(II) config/udev: Adding input device PC Speaker (/dev/input/event8)
(II) No input driver specified, ignoring this device.
(II) This device may have been added with another device file.
dbus-daemon[3137]: [session uid=997 pid=3137] Activating service name='org.a11y.Bus' requested by ':1.1' (uid=997 pid=3143 comm="/usr/libexec/gnome-session-check-accelerated ")
dbus-daemon[3137]: [session uid=997 pid=3137] Successfully activated service 'org.a11y.Bus'
(II) intel(0): EDID vendor "LGD", prod id 1395
(II) intel(0): Printing DDC gathered Modelines:
(II) intel(0): Modeline "1920x1080"x0.0  138.60  1920 1968 2000 2080  1080 1083 1088 1111 -hsync -vsync (66.6 kHz eP)
GNOME Shell-Message: 00:39:47.207: Unset XDG_SESSION_ID, getCurrentSessionProxy() called outside a user session. Asking logind directly.
GNOME Shell-Message: 00:39:47.207: Will monitor session c1
dbus-daemon[3137]: [session uid=997 pid=3137] Activating service name='org.freedesktop.portal.IBus' requested by ':1.13' (uid=997 pid=3243 comm="ibus-daemon --panel disable ")
dbus-daemon[3137]: [session uid=997 pid=3137] Successfully activated service 'org.freedesktop.portal.IBus'
dbus-daemon[3137]: [session uid=997 pid=3137] Activating service name='org.freedesktop.impl.portal.PermissionStore' requested by ':1.12' (uid=997 pid=3164 comm="/usr/bin/gnome-shell ")
dbus-daemon[3137]: [session uid=997 pid=3137] Successfully activated service 'org.freedesktop.impl.portal.PermissionStore'
dbus-daemon[3154]: Activating service name='org.a11y.atspi.Registry' requested by ':1.1' (uid=997 pid=3164 comm="/usr/bin/gnome-shell ")
dbus-daemon[3137]: [session uid=997 pid=3137] Activating service name='org.freedesktop.portal.IBus' requested by ':1.19' (uid=997 pid=3296 comm="ibus-daemon --panel disable -r --xim ")
dbus-daemon[3154]: Successfully activated service 'org.a11y.atspi.Registry'
SpiRegistry daemon is running with well-known name - org.a11y.atspi.Registry
dbus-daemon[3137]: [session uid=997 pid=3137] Successfully activated service 'org.freedesktop.portal.IBus'
GNOME Shell-Message: 00:39:48.171: Failed to get PolKit permission: Polkit.Error: GDBus.Error:org.freedesktop.PolicyKit1.Error.Failed: Action org.freedesktop.bolt.enroll is not registered

(gnome-shell:3164): Clutter-WARNING **: 00:39:48.277: Getting invalid resource scale property

** (gnome-shell:3164): WARNING **: 00:39:48.295: Could not issue 'StartUnit' systemd call

** (gnome-shell:3164): WARNING **: 00:39:48.302: Error checking authorization for action id org.freedesktop.bolt.enroll: GDBus.Error:org.freedesktop.PolicyKit1.Error.Failed: Action org.freedesktop.bolt.enroll is not registered

(gsd-dummy:3332): GLib-GIO-CRITICAL **: 00:39:48.329: g_bus_own_name: assertion 'g_dbus_is_name (name) && !g_dbus_is_unique_name (name)' failed

(gsd-dummy:3368): GLib-GIO-CRITICAL **: 00:39:48.344: g_bus_own_name: assertion 'g_dbus_is_name (name) && !g_dbus_is_unique_name (name)' failed
GNOME Shell-Message: 00:39:48.370: Error looking up permission: GDBus.Error:org.freedesktop.portal.Error.NotFound: No entry for geolocation

(gsd-sharing:3375): sharing-plugin-WARNING **: 00:39:48.395: Failed to StopUnit service: GDBus.Error:org.freedesktop.DBus.Error.ServiceUnknown: The name org.freedesktop.systemd1 was not provided by any .service files

(gsd-sharing:3375): sharing-plugin-WARNING **: 00:39:48.396: Failed to StopUnit service: GDBus.Error:org.freedesktop.DBus.Error.ServiceUnknown: The name org.freedesktop.systemd1 was not provided by any .service files

(gsd-sharing:3375): sharing-plugin-WARNING **: 00:39:48.396: Failed to StopUnit service: GDBus.Error:org.freedesktop.DBus.Error.ServiceUnknown: The name org.freedesktop.systemd1 was not provided by any .service files

(gsd-sharing:3375): sharing-plugin-WARNING **: 00:39:48.396: Failed to StopUnit service: GDBus.Error:org.freedesktop.DBus.Error.ServiceUnknown: The name org.freedesktop.systemd1 was not provided by any .service files

(gsd-media-keys:3327): media-keys-plugin-WARNING **: 00:39:48.424: Failed to grab accelerator for keybinding settings:playback-repeat

(gsd-media-keys:3327): media-keys-plugin-WARNING **: 00:39:48.424: Failed to grab accelerator for keybinding settings:hibernate

(gsd-media-keys:3327): media-keys-plugin-WARNING **: 00:39:48.424: Failed to grab accelerator for keybinding settings:rfkill

(gsd-media-keys:3327): media-keys-plugin-WARNING **: 00:39:48.424: Failed to grab accelerator for keybinding settings:playback-random
Gjs-Message: 00:39:48.438: JS WARNING: [resource:///org/gnome/shell/ui/layout.js 24]: reference to undefined property "MetaWindowX11"
GNOME Shell-Message: 00:39:49.068: Registering session with GDM
(**) Option "fd" "25"
(II) event3  - Power Button: device removed
(**) Option "fd" "28"
(II) event5  - Asus Wireless Radio Control: device removed
(**) Option "fd" "29"
(II) event7  - Video Bus: device removed
(**) Option "fd" "30"
(II) event2  - Power Button: device removed
(**) Option "fd" "31"
(II) event1  - Sleep Button: device removed
(**) Option "fd" "32"
(II) event6  - USB2.0 VGA UVC WebCam: USB2.0 V: device removed
(**) Option "fd" "33"
(II) event17 - ELAN1300:00 04F3:3057 Mouse: device removed
(**) Option "fd" "34"
(II) event18 - ELAN1300:00 04F3:3057 Touchpad: device removed
(**) Option "fd" "35"
(II) event9  - Asus WMI hotkeys: device removed
(**) Option "fd" "36"
(II) event4  - AT Translated Set 2 keyboard: device removed
(II) AIGLX: Suspending AIGLX clients for VT switch
(II) systemd-logind: got pause for 13:71
(II) systemd-logind: got pause for 13:66
(II) systemd-logind: got pause for 13:67
(II) systemd-logind: got pause for 226:0
(II) systemd-logind: got pause for 13:69
(II) systemd-logind: got pause for 13:70
(II) systemd-logind: got pause for 13:82
(II) systemd-logind: got pause for 13:73
(II) systemd-logind: got pause for 13:68
(II) systemd-logind: got pause for 13:65
(II) systemd-logind: got pause for 13:81

(gsd-sharing:3375): sharing-plugin-WARNING **: 01:12:26.348: Failed to StopUnit service: GDBus.Error:org.freedesktop.DBus.Error.ServiceUnknown: The name org.freedesktop.systemd1 was not provided by any .service files

(gsd-sharing:3375): sharing-plugin-WARNING **: 01:12:26.355: Failed to StopUnit service: GDBus.Error:org.freedesktop.DBus.Error.ServiceUnknown: The name org.freedesktop.systemd1 was not provided by any .service files

(gsd-sharing:3375): sharing-plugin-WARNING **: 01:12:26.355: Failed to StopUnit service: GDBus.Error:org.freedesktop.DBus.Error.ServiceUnknown: The name org.freedesktop.systemd1 was not provided by any .service files

(gsd-sharing:3375): sharing-plugin-WARNING **: 01:12:26.355: Failed to StopUnit service: GDBus.Error:org.freedesktop.DBus.Error.ServiceUnknown: The name org.freedesktop.systemd1 was not provided by any .service files

(gsd-sharing:3375): sharing-plugin-WARNING **: 01:12:26.782: Failed to StopUnit service: GDBus.Error:org.freedesktop.DBus.Error.ServiceUnknown: The name org.freedesktop.systemd1 was not provided by any .service files

(gsd-sharing:3375): sharing-plugin-WARNING **: 01:12:26.783: Failed to StopUnit service: GDBus.Error:org.freedesktop.DBus.Error.ServiceUnknown: The name org.freedesktop.systemd1 was not provided by any .service files

(gsd-sharing:3375): sharing-plugin-WARNING **: 01:12:26.783: Failed to StopUnit service: GDBus.Error:org.freedesktop.DBus.Error.ServiceUnknown: The name org.freedesktop.systemd1 was not provided by any .service files

(gsd-sharing:3375): sharing-plugin-WARNING **: 01:12:26.783: Failed to StopUnit service: GDBus.Error:org.freedesktop.DBus.Error.ServiceUnknown: The name org.freedesktop.systemd1 was not provided by any .service files
