Incoming    2020-05-08, 06:31    Passwd                 177973613    177973613
Incoming    2020-05-08, 06:45    Token                  177973613    177973613
Incoming    2020-05-08, 06:53    Token                  177973613    177973613
Incoming    2020-05-08, 08:01    Token                  177973613    177973613
Incoming    2020-05-08, 08:05    Token                  177973613    177973613
Incoming    2020-05-08, 08:10    Token                  177973613    177973613
Incoming    2020-05-08, 08:21    Token                  177973613    177973613
Incoming    2020-05-08, 08:46    Token                  177973613    177973613
Incoming    2020-05-08, 08:51    Token                  177973613    177973613
Incoming    2020-05-08, 09:02    Token                  177973613    177973613
Incoming    2020-05-08, 09:33    Token                  177973613    177973613
Incoming    2020-05-08, 09:43    Token                  177973613    177973613
Incoming    2020-05-08, 09:55    Token                  177973613    177973613
Incoming    2020-05-08, 10:08    Token                  177973613    177973613
Incoming    2020-05-08, 10:09    Token                  177973613    177973613
Incoming    2020-05-08, 10:10    Token                  177973613    177973613
Incoming    2020-05-08, 10:12    Token                  177973613    177973613
Incoming    2020-05-08, 10:36    Token                  177973613    177973613
Incoming    2020-05-08, 10:52    Token                  177973613    177973613
Incoming    2020-05-08, 10:53    Token                  177973613    177973613
Incoming    2020-05-08, 10:56    Token                  177973613    177973613
Incoming    2020-05-08, 11:30    Token                  177973613    177973613
Incoming    2020-05-08, 11:43    Token                  177973613    177973613
Incoming    2020-05-08, 11:46    Token                  177973613    177973613
Incoming    2020-05-08, 11:48    Token                  177973613    177973613
Incoming    2020-05-08, 11:52    Token                  177973613    177973613
Incoming    2020-05-08, 11:59    Token                  177973613    177973613
Incoming    2020-05-08, 12:00    Token                  177973613    177973613
Incoming    2020-05-08, 12:14    Token                  177973613    177973613
Incoming    2020-05-08, 12:15    Token                  177973613    177973613
Incoming    2020-05-08, 12:20    Token                  177973613    177973613
Incoming    2020-05-08, 12:24    Token                  177973613    177973613
Incoming    2020-05-08, 12:26    Token                  177973613    177973613
Incoming    2020-05-08, 12:31    Token                  177973613    177973613
Incoming    2020-05-08, 12:53    Token                  177973613    177973613
Incoming    2020-05-08, 12:55    Token                  177973613    177973613
Incoming    2020-05-08, 12:56    Token                  177973613    177973613
Incoming    2020-05-08, 12:59    Token                  177973613    177973613
Incoming    2020-05-08, 12:59    Token                  177973613    177973613
Incoming    2020-05-08, 13:33    Token                  177973613    177973613
Incoming    2020-05-08, 14:16    Token                  177973613    177973613
Incoming    2020-05-08, 14:37    Token                  177973613    177973613
Incoming    2020-05-08, 14:39    Token                  177973613    177973613
Incoming    2020-05-08, 14:52    Token                  177973613    177973613
Incoming    2020-05-08, 15:40    Token                  177973613    177973613
Incoming    2020-05-08, 15:43    Token                  177973613    177973613
Incoming    2020-05-08, 15:57    Token                  177973613    177973613
Incoming    2020-05-08, 16:06    Token                  177973613    177973613
Incoming    2020-05-08, 16:16    Token                  177973613    177973613
Incoming    2020-05-08, 16:28    Token                  177973613    177973613
Incoming    2020-05-08, 16:49    Token                  177973613    177973613
Incoming    2020-05-08, 16:51    Token                  177973613    177973613
Incoming    2020-05-08, 16:59    Token                  177973613    177973613
Incoming    2020-05-08, 17:10    Token                  177973613    177973613
Incoming    2020-05-08, 17:10    Token                  177973613    177973613
Incoming    2020-05-08, 17:11    Token                  177973613    177973613
Incoming    2020-05-08, 17:27    Token                  177973613    177973613
Incoming    2020-05-08, 17:34    Token                  177973613    177973613
Incoming    2020-05-08, 17:58    Token                  177973613    177973613
Incoming    2020-05-08, 18:08    Token                  177973613    177973613
Incoming    2020-05-08, 18:11    Token                  177973613    177973613
Incoming    2020-05-08, 19:04    Token                  177973613    177973613
Incoming    2020-05-08, 19:12    Token                  177973613    177973613
Incoming    2020-05-08, 19:13    Token                  177973613    177973613
Incoming    2020-05-08, 19:15    Token                  177973613    177973613
Incoming    2020-05-08, 19:28    Token                  177973613    177973613
Incoming    2020-05-08, 19:36    Token                  177973613    177973613
Incoming    2020-05-08, 19:41    Token                  177973613    177973613
Incoming    2020-05-08, 19:57    Token                  177973613    177973613
Incoming    2020-05-08, 20:02    Token                  177973613    177973613
Incoming    2020-05-08, 20:30    Token                  177973613    177973613
Incoming    2020-05-08, 20:33    Token                  177973613    177973613
Incoming    2020-05-08, 21:55    Token                  177973613    177973613
Incoming    2020-05-08, 21:58    Token                  177973613    177973613
Incoming    2020-05-08, 22:03    Token                  177973613    177973613
Incoming    2020-05-08, 22:07    Token                  177973613    177973613
Incoming    2020-05-08, 22:10    Token                  177973613    177973613
Incoming    2020-05-08, 22:23    Token                  177973613    177973613
Incoming    2020-05-08, 22:27    Token                  177973613    177973613
Incoming    2020-05-08, 23:13    Token                  177973613    177973613
Incoming    2020-05-08, 23:20    Token                  177973613    177973613
Incoming    2020-05-08, 23:26    Token                  177973613    177973613
Incoming    2020-05-08, 23:37    Token                  177973613    177973613
Incoming    2020-05-08, 23:43    Token                  177973613    177973613
Incoming    2020-05-08, 23:47    Token                  177973613    177973613
Incoming    2020-05-08, 23:49    Token                  177973613    177973613
Incoming    2020-05-09, 00:06    Token                  177973613    177973613
Incoming    2020-05-09, 00:17    Token                  177973613    177973613
Incoming    2020-05-09, 00:18    Token                  177973613    177973613
Incoming    2020-05-09, 00:21    Token                  177973613    177973613
Incoming    2020-05-09, 00:22    Token                  177973613    177973613
Incoming    2020-05-09, 00:31    Token                  177973613    177973613
Incoming    2020-05-09, 00:51    Token                  177973613    177973613
Incoming    2020-05-09, 01:09    Token                  177973613    177973613
Incoming    2019-04-19, 06:50    Token                  177973613    177973613
Incoming    2019-04-19, 06:52    Token                  177973613    177973613
Incoming    2019-04-18, 17:05    Token                  177973613    177973613
Incoming    2020-05-14, 10:02    Token                  177973613    177973613
Incoming    2020-05-14, 13:41    Token                  177973613    177973613
Incoming    2020-05-14, 13:42    Token                  177973613    177973613
Incoming    2020-05-14, 13:44    Token                  177973613    177973613
Incoming    2020-05-14, 14:06    Token                  177973613    177973613
Incoming    2020-05-14, 14:18    Token                  177973613    177973613
Incoming    2020-05-14, 14:24    Token                  177973613    177973613
Incoming    2020-05-14, 14:26    Token                  177973613    177973613
Incoming    2020-05-14, 14:29    Token                  177973613    177973613
Incoming    2020-05-14, 14:29    Token                  177973613    177973613
Incoming    2020-05-14, 14:43    Token                  177973613    177973613
Incoming    2020-05-14, 15:08    Token                  177973613    177973613
Incoming    2020-05-14, 15:11    Token                  177973613    177973613
Incoming    2020-05-14, 15:26    Token                  177973613    177973613
Incoming    2020-05-14, 17:51    Token                  177973613    177973613
Incoming    2020-05-14, 17:59    Token                  177973613    177973613
Incoming    2020-05-14, 18:01    Token                  177973613    177973613
Incoming    2020-05-14, 18:12    Token                  177973613    177973613
Incoming    2020-05-14, 18:16    Token                  177973613    177973613
Incoming    2020-05-14, 18:33    Token                  177973613    177973613
Incoming    2020-05-14, 18:35    Token                  177973613    177973613
Incoming    2020-05-14, 18:51    Token                  177973613    177973613
Incoming    2020-05-14, 18:58    Token                  177973613    177973613
Incoming    2020-05-14, 19:19    Token                  177973613    177973613
Incoming    2020-05-14, 19:42    Token                  177973613    177973613
Incoming    2020-05-14, 19:44    Token                  177973613    177973613
Incoming    2020-05-14, 19:45    Token                  177973613    177973613
Incoming    2020-05-14, 19:51    Token                  177973613    177973613
Incoming    2020-05-14, 20:00    Token                  177973613    177973613
Incoming    2020-05-14, 20:07    Token                  177973613    177973613
Incoming    2020-05-14, 20:11    Token                  177973613    177973613
Incoming    2020-05-14, 20:57    Token                  177973613    177973613
Incoming    2020-05-14, 21:15    Token                  177973613    177973613
Incoming    2020-05-14, 21:16    Token                  177973613    177973613
Incoming    2020-05-14, 21:24    Token                  177973613    177973613
Incoming    2020-05-14, 21:28    Token                  177973613    177973613
Incoming    2020-05-15, 21:26    Token                  177973613    177973613
Incoming    2020-05-15, 21:31    Token                  177973613    177973613
Incoming    2020-05-15, 21:37    Token                  177973613    177973613
Incoming    2020-05-15, 21:53    Token                  177973613    177973613
Incoming    2020-05-15, 22:01    Token                  177973613    177973613
Incoming    2020-05-15, 22:03    Token                  177973613    177973613
Incoming    2020-05-15, 22:03    Token                  177973613    177973613
Incoming    2020-05-15, 22:38    Token                  177973613    177973613
Incoming    2020-05-15, 22:40    Token                  177973613    177973613
Incoming    2020-05-15, 22:59    Token                  177973613    177973613
Incoming    2020-05-15, 23:33    Token                  177973613    177973613
Incoming    2020-05-15, 23:36    Token                  177973613    177973613
Incoming    2020-05-15, 23:39    Token                  177973613    177973613
Incoming    2020-05-15, 23:41    Token                  177973613    177973613
Incoming    2020-05-15, 23:54    Token                  177973613    177973613
Incoming    2020-05-16, 00:01    Token                  177973613    177973613
Incoming    2020-05-16, 00:04    Token                  177973613    177973613
Incoming    2020-05-16, 00:07    Token                  177973613    177973613
Incoming    2020-05-16, 00:09    Token                  177973613    177973613
Incoming    2020-05-16, 00:11    Token                  177973613    177973613
Incoming    2020-05-16, 00:17    Token                  177973613    177973613
Incoming    2020-05-16, 00:31    Token                  177973613    177973613
Incoming    2020-05-16, 00:38    Token                  177973613    177973613
Incoming    2020-05-16, 01:06    Token                  177973613    177973613
Incoming    2020-05-16, 01:13    Token                  177973613    177973613
Incoming    2020-05-16, 01:17    Token                  177973613    177973613
Incoming    2020-05-16, 01:24    Token                  177973613    177973613
Incoming    2020-05-16, 01:27    Token                  177973613    177973613
Incoming    2020-05-16, 01:46    Token                  177973613    177973613
Incoming    2020-05-16, 01:50    Token                  177973613    177973613
Incoming    2020-05-16, 02:05    Token                  177973613    177973613
Incoming    2020-05-16, 02:12    Token                  177973613    177973613
Incoming    2020-05-16, 05:42    Token                  177973613    177973613
Incoming    2020-05-16, 05:45    Token                  177973613    177973613
Incoming    2020-05-16, 06:18    Token                  177973613    177973613
Incoming    2020-05-16, 06:24    Token                  177973613    177973613
Incoming    2020-05-16, 06:58    Token                  177973613    177973613
Incoming    2020-05-16, 07:10    Token                  177973613    177973613
Incoming    2020-05-16, 07:38    Token                  177973613    177973613
Incoming    2020-05-16, 07:46    Token                  177973613    177973613
Incoming    2020-05-16, 07:57    Token                  177973613    177973613
Incoming    2020-05-16, 08:07    Token                  177973613    177973613
Incoming    2020-05-16, 08:08    Token                  177973613    177973613
Incoming    2020-05-16, 08:11    Token                  177973613    177973613
Incoming    2020-05-16, 08:21    Token                  177973613    177973613
Incoming    2020-05-16, 08:35    Token                  177973613    177973613
Incoming    2020-05-16, 08:46    Token                  177973613    177973613
Incoming    2020-05-16, 08:48    Token                  177973613    177973613
Incoming    2020-05-16, 08:58    Token                  177973613    177973613
Incoming    2020-05-16, 09:07    Token                  177973613    177973613
Incoming    2020-05-16, 09:19    Token                  177973613    177973613
Incoming    2020-05-16, 09:33    Token                  177973613    177973613
Incoming    2020-05-16, 09:36    Token                  177973613    177973613
Incoming    2020-05-16, 09:42    Token                  177973613    177973613
Incoming    2020-05-16, 09:44    Token                  177973613    177973613
Incoming    2020-05-16, 09:48    Token                  177973613    177973613
Incoming    2020-05-16, 09:50    Token                  177973613    177973613
Incoming    2020-05-16, 09:56    Token                  177973613    177973613
Incoming    2020-05-16, 09:58    Token                  177973613    177973613
Incoming    2020-05-16, 10:07    Token                  177973613    177973613
Incoming    2020-05-16, 10:12    Token                  177973613    177973613
Incoming    2020-05-16, 10:18    Token                  177973613    177973613
Incoming    2020-05-16, 10:21    Token                  177973613    177973613
Incoming    2020-05-16, 10:26    Token                  177973613    177973613
Incoming    2020-05-16, 10:28    Token                  177973613    177973613
Incoming    2020-05-16, 10:36    Token                  177973613    177973613
Incoming    2020-05-16, 10:59    Token                  177973613    177973613
Incoming    2020-05-16, 11:00    Token                  177973613    177973613
Incoming    2020-05-16, 11:13    Token                  177973613    177973613
Incoming    2020-05-16, 11:24    Token                  177973613    177973613
Incoming    2020-05-16, 11:26    Token                  177973613    177973613
Incoming    2020-05-16, 11:28    Token                  177973613    177973613
Incoming    2020-05-16, 11:30    Token                  177973613    177973613
Incoming    2020-05-16, 11:32    Token                  177973613    177973613
Incoming    2020-05-16, 11:38    Token                  177973613    177973613
Incoming    2020-05-16, 11:42    Token                  177973613    177973613
Incoming    2020-05-16, 11:53    Token                  177973613    177973613
Incoming    2020-05-16, 11:54    Token                  177973613    177973613
Incoming    2020-05-16, 11:58    Token                  177973613    177973613
Incoming    2020-05-16, 12:02    Token                  177973613    177973613
Incoming    2020-05-16, 12:20    Token                  177973613    177973613
Incoming    2020-05-16, 12:22    Token                  177973613    177973613
Incoming    2020-05-16, 12:23    Token                  177973613    177973613
Incoming    2020-05-16, 12:38    Token                  177973613    177973613
Incoming    2020-05-16, 12:57    Token                  177973613    177973613
Incoming    2020-05-16, 13:00    Token                  177973613    177973613
Incoming    2020-05-16, 13:02    Token                  177973613    177973613
Incoming    2020-05-16, 13:04    Token                  177973613    177973613
Incoming    2020-05-16, 13:07    Token                  177973613    177973613
Incoming    2020-05-16, 13:09    Token                  177973613    177973613
Incoming    2020-05-16, 13:22    Token                  177973613    177973613
Incoming    2020-05-16, 13:41    Token                  177973613    177973613
Incoming    2020-05-16, 13:44    Token                  177973613    177973613
Incoming    2020-05-16, 13:48    Token                  177973613    177973613
Incoming    2020-05-16, 13:49    Token                  177973613    177973613
Incoming    2020-05-16, 13:52    Token                  177973613    177973613
Incoming    2020-05-16, 13:54    Token                  177973613    177973613
Incoming    2020-05-16, 13:55    Token                  177973613    177973613
Incoming    2020-05-16, 14:02    Token                  177973613    177973613
Incoming    2020-05-16, 14:05    Token                  177973613    177973613
Incoming    2020-05-16, 14:09    Token                  177973613    177973613
Incoming    2020-05-16, 14:20    Token                  177973613    177973613
Incoming    2020-05-16, 14:27    Token                  177973613    177973613
Incoming    2020-05-16, 14:42    Token                  177973613    177973613
Incoming    2020-05-16, 14:44    Token                  177973613    177973613
Incoming    2020-05-16, 14:45    Token                  177973613    177973613
Incoming    2020-05-16, 14:48    Token                  177973613    177973613
Incoming    2020-05-16, 14:52    Token                  177973613    177973613
Incoming    2020-05-16, 14:54    Token                  177973613    177973613
Incoming    2020-05-16, 14:55    Token                  177973613    177973613
Incoming    2020-05-16, 14:56    Token                  177973613    177973613
Incoming    2020-05-16, 15:26    Token                  177973613    177973613
Incoming    2020-05-16, 15:29    Token                  177973613    177973613
Incoming    2020-05-16, 15:42    Token                  177973613    177973613
Incoming    2020-05-16, 15:44    Token                  177973613    177973613
Incoming    2020-05-16, 15:49    Token                  177973613    177973613
Incoming    2020-05-16, 15:51    Token                  177973613    177973613
Incoming    2020-05-16, 16:22    Token                  177973613    177973613
Incoming    2020-05-16, 16:31    Token                  177973613    177973613
Incoming    2020-05-16, 16:32    Token                  177973613    177973613
Incoming    2020-05-16, 16:49    Token                  177973613    177973613
Incoming    2020-05-16, 16:49    Token                  177973613    177973613
Incoming    2020-05-16, 16:50    Token                  177973613    177973613
Incoming    2020-05-16, 17:20    Token                  177973613    177973613
Incoming    2020-05-16, 17:24    Token                  177973613    177973613
Incoming    2020-05-16, 17:35    Token                  177973613    177973613
Incoming    2020-05-16, 17:36    Token                  177973613    177973613
Incoming    2020-05-16, 17:58    Token                  177973613    177973613
Incoming    2020-05-16, 18:03    Token                  177973613    177973613
Incoming    2020-05-16, 18:05    Token                  177973613    177973613
Incoming    2020-05-16, 18:36    Token                  177973613    177973613
Incoming    2020-05-16, 18:38    Token                  177973613    177973613
